Library\Bee\artifacts\mvdfrm\UnityEditor.TestRunner.ref.dll_193EC4CE382CBFB3.mvfrm
Library\Bee\artifacts\mvdfrm\UnityEditor.UI.ref.dll_4C98D3F7040CD4F5.mvfrm
Library\Bee\artifacts\mvdfrm\UnityEngine.TestRunner.ref.dll_E55D0F7C63F01D9E.mvfrm
Library\Bee\artifacts\mvdfrm\UnityEngine.UI.ref.dll_08FEAA520A2EFD60.mvfrm
Library\Bee\artifacts\mvdfrm\UnityEditor.Graphs.dll_39F53966D6A2FB1A.mvfrm
Library\Bee\artifacts\mvdfrm\UnityEditor.CoreModule.dll_6CBA86E822C358E8.mvfrm
Library\Bee\artifacts\mvdfrm\UnityEditor.DeviceSimulatorModule.dll_077C7C3A22D4A159.mvfrm
Library\Bee\artifacts\mvdfrm\UnityEditor.DiagnosticsModule.dll_27548FD8291B5567.mvfrm
Library\Bee\artifacts\mvdfrm\UnityEditor.dll_2FD0175CFED2FC2D.mvfrm
Library\Bee\artifacts\mvdfrm\UnityEditor.GraphViewModule.dll_A27EF787A42D525E.mvfrm
Library\Bee\artifacts\mvdfrm\UnityEditor.PackageManagerUIModule.dll_42F5A960D034F444.mvfrm
Library\Bee\artifacts\mvdfrm\UnityEditor.QuickSearchModule.dll_B26410E581F251C0.mvfrm
Library\Bee\artifacts\mvdfrm\UnityEditor.SceneTemplateModule.dll_F973A0CDAC634841.mvfrm
Library\Bee\artifacts\mvdfrm\UnityEditor.TextCoreFontEngineModule.dll_70811DC0F40D8566.mvfrm
Library\Bee\artifacts\mvdfrm\UnityEditor.TextCoreTextEngineModule.dll_B869543283913E84.mvfrm
Library\Bee\artifacts\mvdfrm\UnityEditor.UIBuilderModule.dll_F707A4A416E5CB92.mvfrm
Library\Bee\artifacts\mvdfrm\UnityEditor.UIElementsModule.dll_54216A444D878F24.mvfrm
Library\Bee\artifacts\mvdfrm\UnityEditor.UIElementsSamplesModule.dll_5B37E5910D4A5089.mvfrm
Library\Bee\artifacts\mvdfrm\UnityEditor.UIServiceModule.dll_2FF9B607001D1BAC.mvfrm
Library\Bee\artifacts\mvdfrm\UnityEditor.UnityConnectModule.dll_3CB1B5F7870C7B9E.mvfrm
Library\Bee\artifacts\mvdfrm\UnityEngine.AccessibilityModule.dll_2C190C64ACD96FDE.mvfrm
Library\Bee\artifacts\mvdfrm\UnityEngine.AIModule.dll_1ADDAB7BCA171A3C.mvfrm
Library\Bee\artifacts\mvdfrm\UnityEngine.AndroidJNIModule.dll_D26A531796A6FDFA.mvfrm
Library\Bee\artifacts\mvdfrm\UnityEngine.AnimationModule.dll_710473B07E8A2704.mvfrm
Library\Bee\artifacts\mvdfrm\UnityEngine.ARModule.dll_D450707F27347905.mvfrm
Library\Bee\artifacts\mvdfrm\UnityEngine.AssetBundleModule.dll_F64D43D6E45906B2.mvfrm
Library\Bee\artifacts\mvdfrm\UnityEngine.AudioModule.dll_1EC7A7A0E7AC26F6.mvfrm
Library\Bee\artifacts\mvdfrm\UnityEngine.ClothModule.dll_85B0049BC1C905DA.mvfrm
Library\Bee\artifacts\mvdfrm\UnityEngine.ClusterInputModule.dll_BC4E2B0D38944E64.mvfrm
Library\Bee\artifacts\mvdfrm\UnityEngine.ClusterRendererModule.dll_0D293EAB928FAEDD.mvfrm
Library\Bee\artifacts\mvdfrm\UnityEngine.CoreModule.dll_8FDB5A3ACAC8C413.mvfrm
Library\Bee\artifacts\mvdfrm\UnityEngine.CrashReportingModule.dll_05ABE0AA97F7218B.mvfrm
Library\Bee\artifacts\mvdfrm\UnityEngine.DirectorModule.dll_A2019D7F9883FEF0.mvfrm
Library\Bee\artifacts\mvdfrm\UnityEngine.dll_62745E355D468912.mvfrm
Library\Bee\artifacts\mvdfrm\UnityEngine.DSPGraphModule.dll_A752FEE90AE4D011.mvfrm
Library\Bee\artifacts\mvdfrm\UnityEngine.GameCenterModule.dll_FCB79D325CE7EEEB.mvfrm
Library\Bee\artifacts\mvdfrm\UnityEngine.GIModule.dll_B319F48965C60256.mvfrm
Library\Bee\artifacts\mvdfrm\UnityEngine.GridModule.dll_6D4C7628E31D5A0A.mvfrm
Library\Bee\artifacts\mvdfrm\UnityEngine.HotReloadModule.dll_F24D31B659BD4286.mvfrm
Library\Bee\artifacts\mvdfrm\UnityEngine.ImageConversionModule.dll_791B3C5C14B466D1.mvfrm
Library\Bee\artifacts\mvdfrm\UnityEngine.IMGUIModule.dll_57274707ADDDBAD7.mvfrm
Library\Bee\artifacts\mvdfrm\UnityEngine.InputLegacyModule.dll_87925EF57C4ABCA3.mvfrm
Library\Bee\artifacts\mvdfrm\UnityEngine.InputModule.dll_853D6F515DE44B9A.mvfrm
Library\Bee\artifacts\mvdfrm\UnityEngine.JSONSerializeModule.dll_8C3095A0AC14D068.mvfrm
Library\Bee\artifacts\mvdfrm\UnityEngine.LocalizationModule.dll_FA9AF55FD010415D.mvfrm
Library\Bee\artifacts\mvdfrm\UnityEngine.NVIDIAModule.dll_181E0E50149C88DF.mvfrm
Library\Bee\artifacts\mvdfrm\UnityEngine.ParticleSystemModule.dll_58BE29F70608AD19.mvfrm
Library\Bee\artifacts\mvdfrm\UnityEngine.PerformanceReportingModule.dll_B8D305E9C5B32BD2.mvfrm
Library\Bee\artifacts\mvdfrm\UnityEngine.Physics2DModule.dll_BDAA63A11F871E99.mvfrm
Library\Bee\artifacts\mvdfrm\UnityEngine.PhysicsModule.dll_74BB17CED40FEC87.mvfrm
Library\Bee\artifacts\mvdfrm\UnityEngine.ProfilerModule.dll_D447D6B631DD85FD.mvfrm
Library\Bee\artifacts\mvdfrm\UnityEngine.RuntimeInitializeOnLoadManagerInitializerModule.dll_9423A6C5A9BB4162.mvfrm
Library\Bee\artifacts\mvdfrm\UnityEngine.ScreenCaptureModule.dll_A6184325C080FCCA.mvfrm
Library\Bee\artifacts\mvdfrm\UnityEngine.SharedInternalsModule.dll_FD2C7B318BE26221.mvfrm
Library\Bee\artifacts\mvdfrm\UnityEngine.SpriteMaskModule.dll_E5E40FC27E578465.mvfrm
Library\Bee\artifacts\mvdfrm\UnityEngine.SpriteShapeModule.dll_0FAE713199FB3EBC.mvfrm
Library\Bee\artifacts\mvdfrm\UnityEngine.StreamingModule.dll_25996100CE11DE42.mvfrm
Library\Bee\artifacts\mvdfrm\UnityEngine.SubstanceModule.dll_0244754A1964DC50.mvfrm
Library\Bee\artifacts\mvdfrm\UnityEngine.SubsystemsModule.dll_509176244C9F6C78.mvfrm
Library\Bee\artifacts\mvdfrm\UnityEngine.TerrainModule.dll_8F01933DA9CE3575.mvfrm
Library\Bee\artifacts\mvdfrm\UnityEngine.TerrainPhysicsModule.dll_5938D2CA1F4BA7A6.mvfrm
Library\Bee\artifacts\mvdfrm\UnityEngine.TextCoreFontEngineModule.dll_EEE09914070B4431.mvfrm
Library\Bee\artifacts\mvdfrm\UnityEngine.TextCoreTextEngineModule.dll_36C8CF85968EFD4F.mvfrm
Library\Bee\artifacts\mvdfrm\UnityEngine.TextRenderingModule.dll_CF57B53077B87CBF.mvfrm
Library\Bee\artifacts\mvdfrm\UnityEngine.TilemapModule.dll_2DFDFABEC18B167E.mvfrm
Library\Bee\artifacts\mvdfrm\UnityEngine.TLSModule.dll_FC618C991A0D439B.mvfrm
Library\Bee\artifacts\mvdfrm\UnityEngine.UIElementsModule.dll_54CFD78C4FCBA86F.mvfrm
Library\Bee\artifacts\mvdfrm\UnityEngine.UIElementsNativeModule.dll_8D6F5DF641AD6466.mvfrm
Library\Bee\artifacts\mvdfrm\UnityEngine.UIModule.dll_165149A9265E1FE8.mvfrm
Library\Bee\artifacts\mvdfrm\UnityEngine.UmbraModule.dll_999C53B974D2D269.mvfrm
Library\Bee\artifacts\mvdfrm\UnityEngine.UNETModule.dll_2281A22417D7B98C.mvfrm
Library\Bee\artifacts\mvdfrm\UnityEngine.UnityAnalyticsModule.dll_785D9AC0B22FFF15.mvfrm
Library\Bee\artifacts\mvdfrm\UnityEngine.UnityConnectModule.dll_2A113A0681947C49.mvfrm
Library\Bee\artifacts\mvdfrm\UnityEngine.UnityCurlModule.dll_A42114E1EE9E18F1.mvfrm
Library\Bee\artifacts\mvdfrm\UnityEngine.UnityTestProtocolModule.dll_16FA9B836745A5DF.mvfrm
Library\Bee\artifacts\mvdfrm\UnityEngine.UnityWebRequestAssetBundleModule.dll_DEB1F2C46145E9A6.mvfrm
Library\Bee\artifacts\mvdfrm\UnityEngine.UnityWebRequestAudioModule.dll_30CF59C84C1DF66A.mvfrm
Library\Bee\artifacts\mvdfrm\UnityEngine.UnityWebRequestModule.dll_8ABA44061FA90150.mvfrm
Library\Bee\artifacts\mvdfrm\UnityEngine.UnityWebRequestTextureModule.dll_72B3AA171A87DD7F.mvfrm
Library\Bee\artifacts\mvdfrm\UnityEngine.UnityWebRequestWWWModule.dll_018B14E1864EB9BB.mvfrm
Library\Bee\artifacts\mvdfrm\UnityEngine.VehiclesModule.dll_19C496FF12ADCE8B.mvfrm
Library\Bee\artifacts\mvdfrm\UnityEngine.VFXModule.dll_7D402507F07AAD08.mvfrm
Library\Bee\artifacts\mvdfrm\UnityEngine.VideoModule.dll_43D12C0BAA3E429B.mvfrm
Library\Bee\artifacts\mvdfrm\UnityEngine.VirtualTexturingModule.dll_B1FC12651A5BE4F1.mvfrm
Library\Bee\artifacts\mvdfrm\UnityEngine.VRModule.dll_6923702EC818A560.mvfrm
Library\Bee\artifacts\mvdfrm\UnityEngine.WindModule.dll_062A35635BFF427C.mvfrm
Library\Bee\artifacts\mvdfrm\UnityEngine.XRModule.dll_9BE233335152F2BE.mvfrm
Library\Bee\artifacts\mvdfrm\UnityEditor.WebGL.Extensions.dll_AA5D96005C18B848.mvfrm
Library\Bee\artifacts\mvdfrm\UnityEditor.WindowsStandalone.Extensions.dll_8A8A2C293D234F38.mvfrm